{
  "tv_shows": [
    {
      "backdrop_path": "/z59kJfcElR9eHO9rJbWp4qWMuee.jpg",
      "first_air_date": "2014-10-07",
      "genre_ids": [
        18,
        10765
      ],
      "id": 60735,
      "name": "The Flash",
      "origin_country": [
        "US"
      ],
      "original_language": "en",
      "original_name": "The Flash",
      "overview": "After a particle accelerator causes a freak storm, CSI Investigator Barry Allen is struck by lightning and falls into a coma. Months later he awakens with the power of super speed, granting him the ability to move through Central City like an unseen guardian angel. Though initially excited by his newfound powers, Barry is shocked to discover he is not the only \"meta-human\" who was created in the wake of the accelerator explosion -- and not everyone is using their new powers for good. Barry partners with S.T.A.R. Labs and dedicates his life to protect the innocent. For now, only a few close friends and associates know that Barry is literally the fastest man alive, but it won't be long before the world learns what Barry Allen has become...The Flash.",
      "popularity": 1305.912,
      "poster_path": "/lJA2RCMfsWoskqlQhXPSLFQGXEJ.jpg",
      "vote_average": 7.7,
      "vote_count": 7463
    },
    {
      "backdrop_path": "/wkyzeBBKLhSg1Oqhky5yoiFF2hG.jpg",
      "first_air_date": "2018-04-22",
      "genre_ids": [
        18
      ],
      "id": 79008,
      "name": "Luis Miguel: The Series",
      "origin_country": [
        "MX"
      ],
      "original_language": "es",
      "original_name": "Luis Miguel: La Serie",
      "overview": "The series dramatizes the life story of Mexican superstar singer Luis Miguel, who has captivated audiences in Latin America and beyond for decades.",
      "popularity": 1026.46,
      "poster_path": "/34FaY8qpjBAVysSfrJ1l7nrAQaD.jpg",
      "vote_average": 8.1,
      "vote_count": 332
    },
    {
      "backdrop_path": "/edmk8xjGBsYVIf4QtLY9WMaMcXZ.jpg",
      "first_air_date": "2005-03-27",
      "genre_ids": [
        18
      ],
      "id": 1416,
      "name": "Grey's Anatomy",
      "origin_country": [
        "US"
      ],
      "original_language": "en",
      "original_name": "Grey's Anatomy",
      "overview": "Follows the personal and professional lives of a group of doctors at Seattle’s Grey Sloan Memorial Hospital.",
      "popularity": 878.708,
      "poster_path": "/clnyhPqj1SNgpAdeSS6a6fwE6Bo.jpg",
      "vote_average": 8.2,
      "vote_count": 5941
    },
    {
      "backdrop_path": "/6UH52Fmau8RPsMAbQbjwN3wJSCj.jpg",
      "first_air_date": "2021-03-26",
      "genre_ids": [
        16,
        10759,
        18
      ],
      "id": 95557,
      "name": "Invincible",
      "origin_country": [
        "US"
      ],
      "original_language": "en",
      "original_name": "Invincible",
      "overview": "Mark Grayson is a normal teenager except for the fact that his father is the most powerful superhero on the planet. Shortly after his seventeenth birthday, Mark begins to develop powers of his own and enters into his father’s tutelage.",
      "popularity": 864.682,
      "poster_path": "/yDWJYRAwMNKbIYT8ZB33qy84uzO.jpg",
      "vote_average": 8.9,
      "vote_count": 894
    },
    {
      "backdrop_path": "/5VltHQJXdmbSD6gEJw3R8R1Kbmc.jpg",
      "first_air_date": "2016-09-23",
      "genre_ids": [
        9648,
        10765,
        10759
      ],
      "id": 65820,
      "name": "Van Helsing",
      "origin_country": [
        "US"
      ],
      "original_language": "en",
      "original_name": "Van Helsing",
      "overview": "Vanessa Helsing, the daughter of famous vampire hunter and Dracula nemesis Abraham Van Helsing is resurrected five years in the future to find out that vampires have taken over the world and that she possesses unique power over them. She is humanity’s last hope to lead an offensive to take back what has been lost.",
      "popularity": 835.115,
      "poster_path": "/r8ODGmfNbZQlNhiJl2xQENE2jsk.jpg",
      "vote_average": 6.9,
      "vote_count": 524
    },
    {
      "backdrop_path": "/lKGi8u6l5PJVSAdOazHjt0n3wHZ.jpg",
      "first_air_date": "2018-06-12",
      "genre_ids": [
        18
      ],
      "id": 80240,
      "name": "The Queen of Flow",
      "origin_country": [
        "CO"
      ],
      "original_language": "es",
      "original_name": "La Reina del Flow",
      "overview": "After spending seventeen years in prison unfairly, a talented songwriter seeks revenge on the men who sank her and killed her family.",
      "popularity": 618.597,
      "poster_path": "/3T5mSuziI0TMa7z9R5w3vNl2qok.jpg",
      "vote_average": 7.9,
      "vote_count": 656
    },
    {
      "backdrop_path": "/58PON1OrnBiX6CqEHgeWKVwrCn6.jpg",
      "first_air_date": "2015-08-23",
      "genre_ids": [
        10759,
        18
      ],
      "id": 62286,
      "name": "Fear the Walking Dead",
      "origin_country": [
        "US"
      ],
      "original_language": "en",
      "original_name": "Fear the Walking Dead",
      "overview": "What did the world look like as it was transforming into the horrifying apocalypse depicted in \"The Walking Dead\"? This spin-off set in Los Angeles, following new characters as they face the beginning of the end of the world, will answer that question.",
      "popularity": 512.004,
      "poster_path": "/4UjiPdFKJGJYdxwRs2Rzg7EmWqr.jpg",
      "vote_average": 7.6,
      "vote_count": 3443
    },
    {
      "backdrop_path": "/exZrSuXA05mhklSSoZ65wT6xeNZ.jpg",
      "first_air_date": "2014-09-27",
      "genre_ids": [
        10764
      ],
      "id": 66084,
      "name": "Acapulco Shore",
      "origin_country": [
        "MX"
      ],
      "original_language": "es",
      "original_name": "Acapulco Shore",
      "overview": "A reality-based look at the vapid lives of several Mexican 20-somethings and their respective friends and/or hook-ups during their stay in Acapulco for a Summer vacation.",
      "popularity": 421.673,
      "poster_path": "/fSRyd3ZNZY41awncagc8oqV739M.jpg",
      "vote_average": 8,
      "vote_count": 523
    },
    {
      "backdrop_path": "/fRYwdeNjMqC30EhofPx5PlDpdun.jpg",
      "first_air_date": "2018-10-25",
      "genre_ids": [
        10765,
        18
      ],
      "id": 79460,
      "name": "Legacies",
      "origin_country": [
        "US"
      ],
      "original_language": "en",
      "original_name": "Legacies",
      "overview": "In a place where young witches, vampires, and werewolves are nurtured to be their best selves in spite of their worst impulses, Klaus Mikaelson’s daughter, 17-year-old Hope Mikaelson, Alaric Saltzman’s twins, Lizzie and Josie Saltzman, among others, come of age into heroes and villains at The Salvatore School for the Young and Gifted.",
      "popularity": 407.535,
      "poster_path": "/qTZIgXrBKURBK1KrsT7fe3qwtl9.jpg",
      "vote_average": 8.6,
      "vote_count": 1814
    },
    {
      "backdrop_path": "/hNiGqLsiD30C194lci7VYDmciHD.jpg",
      "first_air_date": "2017-04-26",
      "genre_ids": [
        10765,
        18
      ],
      "id": 69478,
      "name": "The Handmaid's Tale",
      "origin_country": [
        "US"
      ],
      "original_language": "en",
      "original_name": "The Handmaid's Tale",
      "overview": "Set in a dystopian future, a woman is forced to live as a concubine under a fundamentalist theocratic dictatorship. A TV adaptation of Margaret Atwood's novel.",
      "popularity": 306.899,
      "poster_path": "/oIkxqt6ug5zT5ZSUUyc1Iqopf02.jpg",
      "vote_average": 8.2,
      "vote_count": 1274
    },
    {
      "backdrop_path": "/Aof7R1if9jKhHCk6M7UGyEQWQSk.jpg",
      "first_air_date": "2018-10-16",
      "genre_ids": [
        80,
        18
      ],
      "id": 79744,
      "name": "The Rookie",
      "origin_country": [
        "US"
      ],
      "original_language": "en",
      "original_name": "The Rookie",
      "overview": "Starting over isn’t easy, especially for small-town guy John Nolan who, after a life-altering incident, is pursuing his dream of being an LAPD officer. As the force’s oldest rookie, he’s met with skepticism from some higher-ups who see him as just a walking midlife crisis.",
      "popularity": 279.079,
      "poster_path": "/6hChiX0vIjWY4y2kz1WndHVMsDu.jpg",
      "vote_average": 8,
      "vote_count": 459
    },
    {
      "backdrop_path": "/jgb9xICHFX8wTGQ75js4uNbttQs.jpg",
      "first_air_date": "2015-10-26",
      "genre_ids": [
        18,
        10765,
        10759
      ],
      "id": 62688,
      "name": "Supergirl",
      "origin_country": [
        "US"
      ],
      "original_language": "en",
      "original_name": "Supergirl",
      "overview": "Twenty-four-year-old Kara Zor-El, who was taken in by the Danvers family when she was 13 after being sent away from Krypton, must learn to embrace her powers after previously hiding them. The Danvers teach her to be careful with her powers, until she has to reveal them during an unexpected disaster, setting her on her journey of heroism.",
      "popularity": 242.993,
      "poster_path": "/zsaiq8ZclPuneuN7loLEbsh1ANJ.jpg",
      "vote_average": 7.3,
      "vote_count": 3003
    },
    {
      "backdrop_path": "/jWXrQstj7p3Wl5MfYWY6IHqRpDb.jpg",
      "first_air_date": "1952-12-26",
      "genre_ids": [
        10763
      ],
      "id": 94722,
      "name": "Tagesschau",
      "origin_country": [
        "DE"
      ],
      "original_language": "de",
      "original_name": "Tagesschau",
      "overview": "German daily news program, the oldest still existing program on German television.",
      "popularity": 233.455,
      "poster_path": "/7dFZJ2ZJJdcmkp05B9NWlqTJ5tq.jpg",
      "vote_average": 6.2,
      "vote_count": 5
    },
    {
      "backdrop_path": "/9XUIsRUB7V3iEoLSKxZCqPvbKKW.jpg",
      "first_air_date": "2018-09-04",
      "genre_ids": [
        80,
        18
      ],
      "id": 76231,
      "name": "Mayans M.C.",
      "origin_country": [
        "US"
      ],
      "original_language": "en",
      "original_name": "Mayans M.C.",
      "overview": "Set in the aftermath of Jax Teller’s death, Ezekiel \"EZ\" Reyes is fresh out of prison and a prospect in the Mayans M.C. charter on the Cali/Mexi border. Now, EZ must carve out his new identity in a town where he was once the golden boy with the American Dream in his grasp.",
      "popularity": 224.315,
      "poster_path": "/gaKhfksFK24N19bjlFpJxamYZ02.jpg",
      "vote_average": 7.8,
      "vote_count": 179
    },
    {
      "backdrop_path": "/eyO5b3b3wgfiyuIKQMAyekh40A2.jpg",
      "first_air_date": "1999-01-31",
      "genre_ids": [
        16,
        35
      ],
      "id": 1434,
      "name": "Family Guy",
      "origin_country": [
        "US"
      ],
      "original_language": "en",
      "original_name": "Family Guy",
      "overview": "Sick, twisted, politically incorrect and Freakin' Sweet animated series featuring the adventures of the dysfunctional Griffin family. Bumbling Peter and long-suffering Lois have three kids. Stewie (a brilliant but sadistic baby bent on killing his mother and taking over the world), Meg (the oldest, and is the most unpopular girl in town) and Chris (the middle kid, he's not very bright but has a passion for movies). The final member of the family is Brian - a talking dog and much more than a pet, he keeps Stewie in check whilst sipping Martinis and sorting through his own life issues.",
      "popularity": 220.08,
      "poster_path": "/eWWCRjBfLyePh2tfZdvNcIvKSJe.jpg",
      "vote_average": 7,
      "vote_count": 2732
    },
    {
      "backdrop_path": "/v2moumGovVAmDASYkjakIl2WrOM.jpg",
      "first_air_date": "2016-09-23",
      "genre_ids": [
        18,
        10759
      ],
      "id": 67133,
      "name": "MacGyver",
      "origin_country": [
        "US"
      ],
      "original_language": "en",
      "original_name": "MacGyver",
      "overview": "20-something Angus MacGyver creates a clandestine organization where he uses his knack for solving problems in unconventional ways to help prevent disasters from happening.",
      "popularity": 218.809,
      "poster_path": "/2zAogx9dmSAu2HYxbWzHe4ZaNY5.jpg",
      "vote_average": 7.2,
      "vote_count": 615
    },
    {
      "backdrop_path": "/yD1R7QCNqrcaf15AxkLbgRLI9Dz.jpg",
      "first_air_date": "2003-09-23",
      "genre_ids": [
        80,
        10759,
        18
      ],
      "id": 4614,
      "name": "NCIS",
      "origin_country": [
        "US"
      ],
      "original_language": "en",
      "original_name": "NCIS",
      "overview": "From murder and espionage to terrorism and stolen submarines, a team of special agents investigates any crime that has a shred of evidence connected to Navy and Marine Corps personnel, regardless of rank or position.",
      "popularity": 207.732,
      "poster_path": "/fi8EvaWtL5CvoielOjjVvTr7ux3.jpg",
      "vote_average": 7.4,
      "vote_count": 1471
    },
    {
      "backdrop_path": "/qPO43E0tnw9Gjh9EzkNmc3AKlE3.jpg",
      "first_air_date": "2018-03-22",
      "genre_ids": [
        18,
        10759
      ],
      "id": 76773,
      "name": "Station 19",
      "origin_country": [
        "US"
      ],
      "original_language": "en",
      "original_name": "Station 19",
      "overview": "A group of heroic firefighters at Seattle Fire Station 19—from captain to newest recruit—risk their lives and hearts both in the line of duty and off the clock. These brave men and women are like family, literally and figuratively, and together they put their own lives in jeopardy as first responders to save the lives of others.",
      "popularity": 207.636,
      "poster_path": "/lcuCED5Ky2uM5VE6wILOwt5FEb0.jpg",
      "vote_average": 8.2,
      "vote_count": 786
    },
    {
      "backdrop_path": "/zXpSJLcczUt6EfbdULZanguzy87.jpg",
      "first_air_date": "2013-09-23",
      "genre_ids": [
        18,
        80,
        9648
      ],
      "id": 46952,
      "name": "The Blacklist",
      "origin_country": [
        "US"
      ],
      "original_language": "en",
      "original_name": "The Blacklist",
      "overview": "Raymond \"Red\" Reddington, one of the FBI's most wanted fugitives, surrenders in person at FBI Headquarters in Washington, D.C. He claims that he and the FBI have the same interests: bringing down dangerous criminals and terrorists. In the last two decades, he's made a list of criminals and terrorists that matter the most but the FBI cannot find because it does not know they exist. Reddington calls this \"The Blacklist\". Reddington will co-operate, but insists that he will speak only to Elizabeth Keen, a rookie FBI profiler.",
      "popularity": 200.232,
      "poster_path": "/htJzeRcYI2ewMm4PTrg98UMXShe.jpg",
      "vote_average": 7.4,
      "vote_count": 1946
    },
    {
      "backdrop_path": "/W5geO8tq68ng4TsXyZ81phcPiz.jpg",
      "first_air_date": "2012-10-10",
      "genre_ids": [
        18
      ],
      "id": 44006,
      "name": "Chicago Fire",
      "origin_country": [
        "US"
      ],
      "original_language": "en",
      "original_name": "Chicago Fire",
      "overview": "An edge-of-your-seat view into the lives of everyday heroes committed to one of America's noblest professions. For the firefighters, rescue squad and paramedics of Chicago Firehouse 51, no occupation is more stressful or dangerous, yet so rewarding and exhilarating. These courageous men and women are among the elite who forge headfirst into danger when everyone else is running the other way and whose actions make the difference between life and death.",
      "popularity": 197.197,
      "poster_path": "/6AccYL0eb7uzHn98IKaNjvJbyuA.jpg",
      "vote_average": 8.3,
      "vote_count": 1331
    }
  ]
}